<svg xmlns="http://www.w3.org/2000/svg" xmlns:xlink="http://www.w3.org/1999/xlink" width="187" height="41" viewBox="0 0 187 41">
  <defs>
    <clipPath id="clip-Marca">
      <rect width="187" height="41"/>
    </clipPath>
  </defs>
  <g id="Marca" clip-path="url(#clip-Marca)">
    <g id="logo-fraser" transform="translate(3 230.903)">
      <path id="Path_7" data-name="Path 7" d="M634.861-227.625a9.924,9.924,0,0,0-5.611,2.959,8.694,8.694,0,0,0-2.1,7.075c.555,3.083,2.62,5.256,7.707,8.123,6.6,3.715,8.138,5.087,8.416,7.46.308,2.636-2.528,4.763-6.35,4.763a12.739,12.739,0,0,1-8.863-3.838L627-202.1v6.212l.74.462a18.549,18.549,0,0,0,7.06,2.512,21.041,21.041,0,0,0,6-.231,9.193,9.193,0,0,0,7.167-8.955,8.768,8.768,0,0,0-2.774-6.566c-1.4-1.433-2.99-2.482-6.674-4.424-3.314-1.742-4.239-2.312-5.256-3.252-2.328-2.173-1.88-5.087,1-6.412a8.491,8.491,0,0,1,4.223-.647,12.95,12.95,0,0,1,7.075,2.713l1.017.771v-5.688l-1.033-.524a17.808,17.808,0,0,0-4.516-1.541A18.806,18.806,0,0,0,634.861-227.625Z" transform="translate(-530.356)" fill="#fff"/>
      <path id="Path_8" data-name="Path 8" d="M384.549-209.875c-4.023,9.433-7.322,17.2-7.352,17.263a10.73,10.73,0,0,0,2.482.139h2.543l2.127-5.009,2.143-5.009h14.52l1.911,4.193a42.756,42.756,0,0,0,2.358,4.732c.832.94,1.387,1.094,4.162,1.094h2.451l-.925-.956a13.451,13.451,0,0,1-1.541-2.05c-.355-.6-2.543-5.379-4.871-10.635s-5.349-12.1-6.736-15.229L395.308-227h-3.453Zm11.714-3.252c1.48,3.314,2.651,6.058,2.6,6.088-.046.046-2.4.062-5.241.046l-5.179-.046,2.5-6.042c1.356-3.329,2.512-6.058,2.559-6.058S394.784-216.426,396.263-213.128Z" transform="translate(-319.056 -0.764)" fill="#fff"/>
      <path id="Path_9" data-name="Path 9" d="M0-207.891v17.109H4.932v-14.951l6.674-.031,6.659-.046v-4.47l-6.659-.046-6.674-.031V-220.53l8.293-.031,8.277-.046.046-2.2L21.595-225H0Z" transform="translate(0 -2.456)" fill="#fff"/>
      <path id="Path_10" data-name="Path 10" d="M191-207.891v17.109h5.087v-13.749l1.973.062c1.788.046,2.035.092,2.805.493a9.969,9.969,0,0,1,1.927,1.541c1.079,1.079,1.433,1.588,4.932,6.952,3.144,4.825,2.959,4.686,6.72,4.7h2.574l-.879-.894a35.73,35.73,0,0,1-4.408-6.5c-2.312-4.069-3.838-6.166-5.379-7.4l-.848-.678,1.187-.632a9.26,9.26,0,0,0,4.732-5.78,12.564,12.564,0,0,0,.015-5.087,9.224,9.224,0,0,0-6.212-6.489c-1.865-.647-3.067-.755-8.786-.755H191Zm12.054-12.346a5.731,5.731,0,0,1,2.852,2.6c.4.817.432,1.017.432,2.728,0,1.773-.015,1.88-.493,2.79a5.792,5.792,0,0,1-4.208,2.99,27.422,27.422,0,0,1-3.175.154h-2.374v-11.745l3.052.062C201.836-220.592,202.267-220.545,203.054-220.237Z" transform="translate(-161.56 -2.456)" fill="#fff"/>
      <path id="Path_11" data-name="Path 11" d="M821-207.891v17.109h20.038v-4.47H826.087v-10.481l6.982-.031,6.967-.046v-4.47l-6.967-.046-6.982-.031V-220.53h14.489V-225H821Z" transform="translate(-694.453 -2.456)" fill="#fff"/>
      <path id="Path_12" data-name="Path 12" d="M1013-207.991v17.125h4.932v-13.718h1.665a10.275,10.275,0,0,1,2.451.231c1.541.462,3.314,2.173,5.056,4.855,4.593,7.106,5.349,8.108,6.289,8.462a17.281,17.281,0,0,0,2.99.17h2.543l-.94-1a37.8,37.8,0,0,1-4.408-6.551c-2.019-3.545-3.052-5.009-4.624-6.566l-1.4-1.418.694-.339a9.1,9.1,0,0,0,5.41-8.524c.016-4.67-2.728-8.092-7.476-9.387-1.141-.308-1.665-.339-7.2-.4L1013-225.1Zm12.177-12.223a5.059,5.059,0,0,1,3.191,4.732,5.584,5.584,0,0,1-4.5,6.2,20.456,20.456,0,0,1-3.5.231h-2.435V-220.8l3.129.062,3.114.046Z" transform="translate(-856.858 -2.371)" fill="#fff"/>
    </g>
  </g>
</svg>
